{
    "name": "InputActions",
    "maps": [
        {
            "name": "Player",
            "id": "f58f2730-ca2a-43ee-a887-4c3436301379",
            "actions": [
                {
                    "name": "Left",
                    "type": "Button",
                    "id": "4c8a52de-de35-41d5-9ca3-44cd8783fcf4",
                    "expectedControlType": "Button",
                    "processors": "",
                    "interactions": ""
                },
                {
                    "name": "Right",
                    "type": "Button",
                    "id": "2bbf57d3-62a2-48a7-92be-5900dd0a7408",
                    "expectedControlType": "Button",
                    "processors": "",
                    "interactions": ""
                }
            ],
            "bindings": [
                {
                    "name": "",
                    "id": "7c0fa059-2872-4a7e-b68f-de06df4d681f",
                    "path": "<Keyboard>/a",
                    "interactions": "",
                    "processors": "",
                    "groups": "",
                    "action": "Left",
                    "isComposite": false,
                    "isPartOfComposite": false
                },
                {
                    "name": "",
                    "id": "be315226-3223-4aab-8910-f5f06351f051",
                    "path": "<Keyboard>/d",
                    "interactions": "",
                    "processors": "",
                    "groups": "",
                    "action": "Right",
                    "isComposite": false,
                    "isPartOfComposite": false
                }
            ]
        }
    ],
    "controlSchemes": []
}